<svg id="BADGE" xmlns="http://www.w3.org/2000/svg" width="245" height="245" viewBox="0 0 245 245">
  <defs>
    <style>
      .cls-1 {
        fill: #7ec583;
      }

      .cls-2 {
        fill: #34b08d;
      }

      .cls-3 {
        fill: #179c76;
      }

      .cls-4 {
        fill: #ff8e1d;
      }

      .cls-5 {
        fill: #ffb023;
      }

      .cls-6 {
        fill: #ffd12b;
      }

      .cls-7 {
        fill: #ff6d15;
      }
    </style>
  </defs>
  <g id="Layer_1" data-name="Layer 1" transform="translate(0 0)">
    <circle id="Ellipse_122" data-name="Ellipse 122" class="cls-1" cx="122.5" cy="122.5" r="122.5"/>
    <circle id="Ellipse_123" data-name="Ellipse 123" class="cls-2" cx="101.501" cy="101.501" r="101.501" transform="translate(20.85 20.403)"/>
    <circle id="Ellipse_124" data-name="Ellipse 124" class="cls-3" cx="80.083" cy="80.083" r="80.083" transform="translate(43.297 41.944)"/>
    <g id="surface1" transform="translate(73.787 74.613)">
      <path id="Path_425" data-name="Path 425" class="cls-4" d="M104.4,114.076a2.965,2.965,0,1,1,0-5.93c7.446,0,14.527-4.522,19.943-12.659,5.2-7.812,8.259-18.034,8.719-29.027H120.005a2.965,2.965,0,0,1,0-5.93h16.044a2.965,2.965,0,0,1,2.965,2.965c0,13.282-3.466,25.805-9.775,35.282-6.553,9.843-15.38,15.272-24.857,15.3Z" transform="translate(-37.892 -53.192)"/>
      <path id="Path_426" data-name="Path 426" class="cls-5" d="M89.133,114.076h0c-9.477,0-18.318-5.416-24.857-15.3-6.3-9.477-9.775-22-9.775-35.282a2.965,2.965,0,0,1,2.965-2.965H73.522a2.965,2.965,0,1,1,0,5.93H60.471c.46,11.007,3.52,21.215,8.719,29.027,5.416,8.123,12.5,12.632,19.943,12.659a2.965,2.965,0,1,1,0,5.93Z" transform="translate(-54.5 -53.192)"/>
      <path id="Path_427" data-name="Path 427" class="cls-6" d="M132.672,55.14h-63.5a2.965,2.965,0,0,0-2.965,2.965c0,17.411,3.412,33.847,9.613,46.222,3.967,7.947,8.827,13.7,14.2,17V137.47A2.965,2.965,0,0,0,93,140.422h15.854a2.965,2.965,0,0,0,2.965-2.965V121.291c5.416-3.3,10.222-9.071,14.2-17,6.2-12.4,9.613-28.811,9.613-46.222a2.965,2.965,0,0,0-2.965-2.924Z" transform="translate(-50.356 -55.099)"/>
      <path id="Path_428" data-name="Path 428" class="cls-5" d="M102.749,137.467V121.3c5.416-3.3,10.222-9.071,14.2-17,6.2-12.4,9.613-28.811,9.613-46.222A2.965,2.965,0,0,0,123.6,55.11H91.85v85.3h7.934a2.965,2.965,0,0,0,2.965-2.938Z" transform="translate(-41.282 -55.11)"/>
      <path id="Path_429" data-name="Path 429" class="cls-4" d="M114.718,113.76H82.969a10.912,10.912,0,0,0-10.9,10.9v7.934a2.965,2.965,0,0,0,2.965,2.965h47.616a2.965,2.965,0,0,0,2.965-2.965v-7.934A10.912,10.912,0,0,0,114.718,113.76Z" transform="translate(-48.282 -34.354)"/>
      <path id="Path_430" data-name="Path 430" class="cls-7" d="M107.718,113.76H91.85v21.8h23.815a2.965,2.965,0,0,0,2.965-2.965v-7.934A10.912,10.912,0,0,0,107.718,113.76Z" transform="translate(-41.282 -34.354)"/>
      <path id="Path_431" data-name="Path 431" class="cls-5" d="M126.661,131.41H72.7a2.965,2.965,0,1,1,0-5.93h53.966a2.965,2.965,0,0,1,0,5.93Z" transform="translate(-49.11 -30.207)"/>
      <path id="Path_432" data-name="Path 432" class="cls-4" d="M118.833,125.48H91.85v5.93h26.983a2.965,2.965,0,0,0,0-5.93Z" transform="translate(-41.282 -30.207)"/>
    </g>
  </g>
</svg>
