<svg xmlns="http://www.w3.org/2000/svg" xmlns:xlink="http://www.w3.org/1999/xlink" width="503.861" height="183.853" viewBox="0 0 503.861 183.853">
  <defs>
    <style>
      .cls-1 {
        fill: #019961;
      }

      .cls-2 {
        fill: url(#linear-gradient);
      }

      .cls-3 {
        fill: #b3d553;
      }
    </style>
    <linearGradient id="linear-gradient" x1="0.5" y1="0.125" x2="0.5" y2="1.112" gradientUnits="objectBoundingBox">
      <stop offset="0" stop-color="#b5d653"/>
      <stop offset="0.995" stop-color="#019961"/>
    </linearGradient>
  </defs>
  <g id="Group_179" data-name="Group 179" transform="translate(-412.055 -155.925)">
    <g id="Group_155" data-name="Group 155" transform="translate(470.139 -1608.689) rotate(20)">
      <g id="Group_26" data-name="Group 26" transform="translate(824 1567.225)">
        <g id="Group_25" data-name="Group 25" transform="translate(0)">
          <path id="Path_66" data-name="Path 66" class="cls-1" d="M3263.961,365.635a129.988,129.988,0,0,0,11.65-23.525,76.183,76.183,0,0,1-10.56-4.213c2.768.532,8.329-1.1,12.872-2.719a99.7,99.7,0,0,0,3.9-20.862,79.638,79.638,0,0,1-10.381-3.81c1.722.3,6.562-1.088,10.644-2.424.1-9.464-1.086-18.914-2.275-28.315l-.027.019a288.2,288.2,0,0,0-23.306,17.275c1.807,3.823,4.054,8.322,5.386,10.043a40.546,40.546,0,0,1-10.149-5.79,102.124,102.124,0,0,0-7.305,7.575q-2.119,2.448-4.062,5.035c3.522,3.518,8.119,7.737,11.45,9.448,0,0-7.994-2.087-14.9-4.611A168.654,168.654,0,0,0,3227,335.7q-2.325,4.493-4.457,9.091c4.01,4.584,8.391,9.264,10.873,10.875a86.613,86.613,0,0,1-13.667-4.5,128.993,128.993,0,0,0-6.514,19.826c-.636,2.705-1.17,5.453-1.589,8.223a42.491,42.491,0,0,0,9.041,1.847,79.774,79.774,0,0,1-9.656,3.12,76.37,76.37,0,0,0,.048,15.859c.5,4.435,2.291,6.653,4.731,7.455,4.354,1.429,10.779-1.656,15.639-4.717a40.577,40.577,0,0,0,5.771-4.506c-3.011-5.195-2.818-12.318-2.818-12.318l8.15,7.014a174.4,174.4,0,0,0,17.435-21.281c-4.586-3.164-10.254-9.483-10.254-9.483C3252.37,363.763,3259.131,364.951,3263.961,365.635Z" transform="translate(-3117.217 -274.25)"/>
          <path id="Path_67" data-name="Path 67" class="cls-2" d="M3148.829,364.62c-1.306-2.583-2.215-5.543-1.557-8.363s3.31-5.314,6.183-4.959c1.832.226,3.339,1.482,4.969,2.348s3.844,1.277,5.169-.007c1.5-1.453.83-4-.273-5.771-4.574-7.352-14.7-11.194-16.285-19.706a5.78,5.78,0,0,1,.832-4.691c1.607-1.984,4.649-1.859,7.137-1.286s5.2,1.393,7.488.259c2.6-1.29,3.5-4.777,2.649-7.553s-3.033-4.933-5.321-6.719-4.789-3.351-6.7-5.533a8.022,8.022,0,0,1-2.19-4.573,4.239,4.239,0,0,1,2.328-4.232c2.259-.929,5.682.411,6.78-1.771.812-1.614-.707-3.348-1.874-4.727-2.468-2.915-3.8-7.026-2.6-10.652a8.791,8.791,0,0,1,16.32-.94c1.61,3.467.85,7.682,2.469,11.146,1.515.544,2.789-1.136,4.045-2.141,3.106-2.484,8.144-.709,10.162,2.718s1.685,7.76.6,11.587-2.85,7.462-3.561,11.375c-.219,1.2-.014,2.87,1.2,3.036a2.271,2.271,0,0,0,1.6-.628c2.038-1.559,3.72-3.571,5.876-4.964s5.083-2.063,7.253-.693a6.95,6.95,0,0,1,2.369,2.871c2.66,5.343,1.538,11.812-.662,17.36s-5.412,10.707-6.978,16.467c-.279,1.026-.408,2.339.465,2.946a2.177,2.177,0,0,0,1.646.219c3.136-.591,5.215-3.907,8.352-4.493a6.554,6.554,0,0,1,5.958,2.388,12.405,12.405,0,0,1,2.549,6.129c1.1,6.641-.782,13.407-3.181,19.694a80.145,80.145,0,0,1-11.066,20.5h0c-1.917,2.488-9.313,12.993-9.313,12.993s-8.642-9.817-10.3-11.282c-7.088-6.265-15.6-10.645-22.826-16.731A37.827,37.827,0,0,1,3148.829,364.62Z" transform="translate(-3092.069 -270.657)"/>
          <path id="Path_68" data-name="Path 68" class="cls-1" d="M3125.742,415.658a105,105,0,0,0-19.008-9.413,61.551,61.551,0,0,1-3.4,8.532c.429-2.236-.889-6.73-2.2-10.4a80.543,80.543,0,0,0-16.855-3.152,64.358,64.358,0,0,1-3.078,8.388c.241-1.392-.879-5.3-1.958-8.6-7.646-.082-15.282.877-22.878,1.838l.015.022a233.018,233.018,0,0,0,13.957,18.83,59.928,59.928,0,0,0,8.115-4.351,32.782,32.782,0,0,1-4.678,8.2,82.419,82.419,0,0,0,6.12,5.9q1.978,1.712,4.068,3.282c2.843-2.846,6.251-6.56,7.633-9.251,0,0-1.686,6.459-3.725,12.04a136.141,136.141,0,0,0,13.684,7.994q3.63,1.879,7.345,3.6c3.7-3.24,7.485-6.78,8.786-8.785a69.989,69.989,0,0,1-3.638,11.042,104.28,104.28,0,0,0,16.019,5.262c2.186.514,4.406.946,6.644,1.284a34.294,34.294,0,0,0,1.492-7.3,64.53,64.53,0,0,1,2.521,7.8,61.715,61.715,0,0,0,12.813-.039c3.583-.4,5.376-1.851,6.023-3.822,1.154-3.518-1.338-8.709-3.811-12.636a32.858,32.858,0,0,0-3.641-4.662c-4.2,2.433-9.953,2.277-9.953,2.277l5.667-6.585a140.921,140.921,0,0,0-17.194-14.087,60.711,60.711,0,0,1-7.662,8.285C3124.229,425.022,3125.189,419.56,3125.742,415.658Z" transform="translate(-3056.364 -322.071)"/>
        </g>
      </g>
    </g>
    <g id="Group_156" data-name="Group 156" transform="translate(280.139 -1608.689) rotate(20)">
      <g id="Group_26-2" data-name="Group 26" transform="translate(824 1567.225)">
        <g id="Group_25-2" data-name="Group 25" transform="translate(0)">
          <path id="Path_66-2" data-name="Path 66" class="cls-1" d="M3263.961,365.635a129.988,129.988,0,0,0,11.65-23.525,76.183,76.183,0,0,1-10.56-4.213c2.768.532,8.329-1.1,12.872-2.719a99.7,99.7,0,0,0,3.9-20.862,79.638,79.638,0,0,1-10.381-3.81c1.722.3,6.562-1.088,10.644-2.424.1-9.464-1.086-18.914-2.275-28.315l-.027.019a288.2,288.2,0,0,0-23.306,17.275c1.807,3.823,4.054,8.322,5.386,10.043a40.546,40.546,0,0,1-10.149-5.79,102.124,102.124,0,0,0-7.305,7.575q-2.119,2.448-4.062,5.035c3.522,3.518,8.119,7.737,11.45,9.448,0,0-7.994-2.087-14.9-4.611A168.654,168.654,0,0,0,3227,335.7q-2.325,4.493-4.457,9.091c4.01,4.584,8.391,9.264,10.873,10.875a86.613,86.613,0,0,1-13.667-4.5,128.993,128.993,0,0,0-6.514,19.826c-.636,2.705-1.17,5.453-1.589,8.223a42.491,42.491,0,0,0,9.041,1.847,79.774,79.774,0,0,1-9.656,3.12,76.37,76.37,0,0,0,.048,15.859c.5,4.435,2.291,6.653,4.731,7.455,4.354,1.429,10.779-1.656,15.639-4.717a40.577,40.577,0,0,0,5.771-4.506c-3.011-5.195-2.818-12.318-2.818-12.318l8.15,7.014a174.4,174.4,0,0,0,17.435-21.281c-4.586-3.164-10.254-9.483-10.254-9.483C3252.37,363.763,3259.131,364.951,3263.961,365.635Z" transform="translate(-3117.217 -274.25)"/>
          <path id="Path_67-2" data-name="Path 67" class="cls-2" d="M3148.829,364.62c-1.306-2.583-2.215-5.543-1.557-8.363s3.31-5.314,6.183-4.959c1.832.226,3.339,1.482,4.969,2.348s3.844,1.277,5.169-.007c1.5-1.453.83-4-.273-5.771-4.574-7.352-14.7-11.194-16.285-19.706a5.78,5.78,0,0,1,.832-4.691c1.607-1.984,4.649-1.859,7.137-1.286s5.2,1.393,7.488.259c2.6-1.29,3.5-4.777,2.649-7.553s-3.033-4.933-5.321-6.719-4.789-3.351-6.7-5.533a8.022,8.022,0,0,1-2.19-4.573,4.239,4.239,0,0,1,2.328-4.232c2.259-.929,5.682.411,6.78-1.771.812-1.614-.707-3.348-1.874-4.727-2.468-2.915-3.8-7.026-2.6-10.652a8.791,8.791,0,0,1,16.32-.94c1.61,3.467.85,7.682,2.469,11.146,1.515.544,2.789-1.136,4.045-2.141,3.106-2.484,8.144-.709,10.162,2.718s1.685,7.76.6,11.587-2.85,7.462-3.561,11.375c-.219,1.2-.014,2.87,1.2,3.036a2.271,2.271,0,0,0,1.6-.628c2.038-1.559,3.72-3.571,5.876-4.964s5.083-2.063,7.253-.693a6.95,6.95,0,0,1,2.369,2.871c2.66,5.343,1.538,11.812-.662,17.36s-5.412,10.707-6.978,16.467c-.279,1.026-.408,2.339.465,2.946a2.177,2.177,0,0,0,1.646.219c3.136-.591,5.215-3.907,8.352-4.493a6.554,6.554,0,0,1,5.958,2.388,12.405,12.405,0,0,1,2.549,6.129c1.1,6.641-.782,13.407-3.181,19.694a80.145,80.145,0,0,1-11.066,20.5h0c-1.917,2.488-9.313,12.993-9.313,12.993s-8.642-9.817-10.3-11.282c-7.088-6.265-15.6-10.645-22.826-16.731A37.827,37.827,0,0,1,3148.829,364.62Z" transform="translate(-3092.069 -270.657)"/>
          <path id="Path_68-2" data-name="Path 68" class="cls-1" d="M3125.742,415.658a105,105,0,0,0-19.008-9.413,61.551,61.551,0,0,1-3.4,8.532c.429-2.236-.889-6.73-2.2-10.4a80.543,80.543,0,0,0-16.855-3.152,64.358,64.358,0,0,1-3.078,8.388c.241-1.392-.879-5.3-1.958-8.6-7.646-.082-15.282.877-22.878,1.838l.015.022a233.018,233.018,0,0,0,13.957,18.83,59.928,59.928,0,0,0,8.115-4.351,32.782,32.782,0,0,1-4.678,8.2,82.419,82.419,0,0,0,6.12,5.9q1.978,1.712,4.068,3.282c2.843-2.846,6.251-6.56,7.633-9.251,0,0-1.686,6.459-3.725,12.04a136.141,136.141,0,0,0,13.684,7.994q3.63,1.879,7.345,3.6c3.7-3.24,7.485-6.78,8.786-8.785a69.989,69.989,0,0,1-3.638,11.042,104.28,104.28,0,0,0,16.019,5.262c2.186.514,4.406.946,6.644,1.284a34.294,34.294,0,0,0,1.492-7.3,64.53,64.53,0,0,1,2.521,7.8,61.715,61.715,0,0,0,12.813-.039c3.583-.4,5.376-1.851,6.023-3.822,1.154-3.518-1.338-8.709-3.811-12.636a32.858,32.858,0,0,0-3.641-4.662c-4.2,2.433-9.953,2.277-9.953,2.277l5.667-6.585a140.921,140.921,0,0,0-17.194-14.087,60.711,60.711,0,0,1-7.662,8.285C3124.229,425.022,3125.189,419.56,3125.742,415.658Z" transform="translate(-3056.364 -322.071)"/>
        </g>
      </g>
    </g>
    <g id="Group_157" data-name="Group 157" transform="translate(314.139 -1596.689) rotate(20)">
      <g id="Group_26-3" data-name="Group 26" transform="translate(824 1567.225)">
        <g id="Group_25-3" data-name="Group 25" transform="translate(0)">
          <path id="Path_66-3" data-name="Path 66" class="cls-1" d="M3263.961,365.635a129.988,129.988,0,0,0,11.65-23.525,76.183,76.183,0,0,1-10.56-4.213c2.768.532,8.329-1.1,12.872-2.719a99.7,99.7,0,0,0,3.9-20.862,79.638,79.638,0,0,1-10.381-3.81c1.722.3,6.562-1.088,10.644-2.424.1-9.464-1.086-18.914-2.275-28.315l-.027.019a288.2,288.2,0,0,0-23.306,17.275c1.807,3.823,4.054,8.322,5.386,10.043a40.546,40.546,0,0,1-10.149-5.79,102.124,102.124,0,0,0-7.305,7.575q-2.119,2.448-4.062,5.035c3.522,3.518,8.119,7.737,11.45,9.448,0,0-7.994-2.087-14.9-4.611A168.654,168.654,0,0,0,3227,335.7q-2.325,4.493-4.457,9.091c4.01,4.584,8.391,9.264,10.873,10.875a86.613,86.613,0,0,1-13.667-4.5,128.993,128.993,0,0,0-6.514,19.826c-.636,2.705-1.17,5.453-1.589,8.223a42.491,42.491,0,0,0,9.041,1.847,79.774,79.774,0,0,1-9.656,3.12,76.37,76.37,0,0,0,.048,15.859c.5,4.435,2.291,6.653,4.731,7.455,4.354,1.429,10.779-1.656,15.639-4.717a40.577,40.577,0,0,0,5.771-4.506c-3.011-5.195-2.818-12.318-2.818-12.318l8.15,7.014a174.4,174.4,0,0,0,17.435-21.281c-4.586-3.164-10.254-9.483-10.254-9.483C3252.37,363.763,3259.131,364.951,3263.961,365.635Z" transform="translate(-3117.217 -274.25)"/>
          <path id="Path_67-3" data-name="Path 67" class="cls-2" d="M3148.829,364.62c-1.306-2.583-2.215-5.543-1.557-8.363s3.31-5.314,6.183-4.959c1.832.226,3.339,1.482,4.969,2.348s3.844,1.277,5.169-.007c1.5-1.453.83-4-.273-5.771-4.574-7.352-14.7-11.194-16.285-19.706a5.78,5.78,0,0,1,.832-4.691c1.607-1.984,4.649-1.859,7.137-1.286s5.2,1.393,7.488.259c2.6-1.29,3.5-4.777,2.649-7.553s-3.033-4.933-5.321-6.719-4.789-3.351-6.7-5.533a8.022,8.022,0,0,1-2.19-4.573,4.239,4.239,0,0,1,2.328-4.232c2.259-.929,5.682.411,6.78-1.771.812-1.614-.707-3.348-1.874-4.727-2.468-2.915-3.8-7.026-2.6-10.652a8.791,8.791,0,0,1,16.32-.94c1.61,3.467.85,7.682,2.469,11.146,1.515.544,2.789-1.136,4.045-2.141,3.106-2.484,8.144-.709,10.162,2.718s1.685,7.76.6,11.587-2.85,7.462-3.561,11.375c-.219,1.2-.014,2.87,1.2,3.036a2.271,2.271,0,0,0,1.6-.628c2.038-1.559,3.72-3.571,5.876-4.964s5.083-2.063,7.253-.693a6.95,6.95,0,0,1,2.369,2.871c2.66,5.343,1.538,11.812-.662,17.36s-5.412,10.707-6.978,16.467c-.279,1.026-.408,2.339.465,2.946a2.177,2.177,0,0,0,1.646.219c3.136-.591,5.215-3.907,8.352-4.493a6.554,6.554,0,0,1,5.958,2.388,12.405,12.405,0,0,1,2.549,6.129c1.1,6.641-.782,13.407-3.181,19.694a80.145,80.145,0,0,1-11.066,20.5h0c-1.917,2.488-9.313,12.993-9.313,12.993s-8.642-9.817-10.3-11.282c-7.088-6.265-15.6-10.645-22.826-16.731A37.827,37.827,0,0,1,3148.829,364.62Z" transform="translate(-3092.069 -270.657)"/>
          <path id="Path_68-3" data-name="Path 68" class="cls-1" d="M3125.742,415.658a105,105,0,0,0-19.008-9.413,61.551,61.551,0,0,1-3.4,8.532c.429-2.236-.889-6.73-2.2-10.4a80.543,80.543,0,0,0-16.855-3.152,64.358,64.358,0,0,1-3.078,8.388c.241-1.392-.879-5.3-1.958-8.6-7.646-.082-15.282.877-22.878,1.838l.015.022a233.018,233.018,0,0,0,13.957,18.83,59.928,59.928,0,0,0,8.115-4.351,32.782,32.782,0,0,1-4.678,8.2,82.419,82.419,0,0,0,6.12,5.9q1.978,1.712,4.068,3.282c2.843-2.846,6.251-6.56,7.633-9.251,0,0-1.686,6.459-3.725,12.04a136.141,136.141,0,0,0,13.684,7.994q3.63,1.879,7.345,3.6c3.7-3.24,7.485-6.78,8.786-8.785a69.989,69.989,0,0,1-3.638,11.042,104.28,104.28,0,0,0,16.019,5.262c2.186.514,4.406.946,6.644,1.284a34.294,34.294,0,0,0,1.492-7.3,64.53,64.53,0,0,1,2.521,7.8,61.715,61.715,0,0,0,12.813-.039c3.583-.4,5.376-1.851,6.023-3.822,1.154-3.518-1.338-8.709-3.811-12.636a32.858,32.858,0,0,0-3.641-4.662c-4.2,2.433-9.953,2.277-9.953,2.277l5.667-6.585a140.921,140.921,0,0,0-17.194-14.087,60.711,60.711,0,0,1-7.662,8.285C3124.229,425.022,3125.189,419.56,3125.742,415.658Z" transform="translate(-3056.364 -322.071)"/>
        </g>
      </g>
    </g>
    <path id="Path_410" data-name="Path 410" class="cls-3" d="M1751.661,576.644c-1.13-.511-2.273-.993-3.384-1.537-1.483-.725-2.954-1.475-4.4-2.262a9.374,9.374,0,0,1-1.569-1.141c-.368-.315-.34-.636.043-.86a2.65,2.65,0,0,0,1.214-2.3,7.043,7.043,0,0,0-.591-3.173,22.466,22.466,0,0,0-4.619-7.36c-1.026-1.091-2.141-2.125-3.217-3.183-1.389-1.365-2.82-2.7-4.157-4.1a22.19,22.19,0,0,1-4.048-5.7,14.408,14.408,0,0,1-1.463-8.248,9.048,9.048,0,0,1,.349-1.551,4.542,4.542,0,0,1,.552-1.16c.955-1.415,2.609-1.64,4.469-.639a10.693,10.693,0,0,1,2.772,2.141q1.286,1.383,2.471,2.831a51.793,51.793,0,0,0,4.135,4.663,19.044,19.044,0,0,0,1.637,1.415,4.383,4.383,0,0,0,1.087.557.618.618,0,0,0,.859-.282,3.653,3.653,0,0,0,.24-1.058,6.812,6.812,0,0,0-.387-2.563c-.321-.988-.672-1.975-1.068-2.953-1.3-3.207-2.577-6.415-3.644-9.657a51.181,51.181,0,0,1-2.234-9.354,22.472,22.472,0,0,1,.114-7.687,12.759,12.759,0,0,1,4-6.986,7.954,7.954,0,0,1,1.618-1.139,4.5,4.5,0,0,1,5.256.933,5.58,5.58,0,0,1,1.376,1.839,19.21,19.21,0,0,1,1.014,2.635c.417,1.539.734,3.085,1.067,4.63.4,1.853.711,3.71,1.17,5.56.348,1.4.85,2.8,1.323,4.2a10.1,10.1,0,0,0,.735,1.6,5.648,5.648,0,0,0,.8,1.115,2.117,2.117,0,0,0,2.491.574,2.826,2.826,0,0,0,1.319-1.246,9.72,9.72,0,0,0,1.107-3.17,17.567,17.567,0,0,0,.19-5.145c-.183-1.645-.437-3.292-.672-4.939-.352-2.47-.8-4.946-1.059-7.41a43.724,43.724,0,0,1,.842-14.67,20.322,20.322,0,0,1,2.838-6.939,14.69,14.69,0,0,1,3.752-3.951,7.758,7.758,0,0,1,2.412-1.181,4.23,4.23,0,0,1,4.673,1.628,6.287,6.287,0,0,1,1.123,2.276c.281,1.1.513,2.195.729,3.293.182.927.288,1.854.465,2.78a13.059,13.059,0,0,0,1.328,3.972,9.042,9.042,0,0,0,1.113,1.591,3.093,3.093,0,0,0,2.847,1.014,4.538,4.538,0,0,0,1.671-.568,7.123,7.123,0,0,0,2.445-2.287,12.04,12.04,0,0,0,1.77-4.073c.587-2.483,1.089-4.99,1.632-7.486a63.455,63.455,0,0,1,2.294-8.112c.551-1.522,1.1-3.043,1.748-4.525a37.149,37.149,0,0,1,9.617-13.629,20.792,20.792,0,0,1,4.41-3,13.784,13.784,0,0,1,2.881-1.086,9.353,9.353,0,0,1,2.536-.283,6.912,6.912,0,0,1,5.773,3.22,7.577,7.577,0,0,1,1.052,2.938,11.361,11.361,0,0,1-.308,4.807,52.433,52.433,0,0,1-2.229,5.717c-.442,1.067-.958,2.1-1.406,3.169a15.076,15.076,0,0,0-1.181,4.812,8.674,8.674,0,0,0,.029,1.729,6.887,6.887,0,0,0,.421,1.638,5.417,5.417,0,0,0,3.924,3.184,7.843,7.843,0,0,0,3.331.2,18.6,18.6,0,0,0,2.651-.607c1.272-.408,2.5-.9,3.734-1.364a35.786,35.786,0,0,1,5.291-1.716,32.187,32.187,0,0,1,3.192-.479,6.567,6.567,0,0,1,2.271.184,2.852,2.852,0,0,1,2.165,1.835,3.81,3.81,0,0,1-.043,2.7,12.968,12.968,0,0,1-2.061,3.5,28.657,28.657,0,0,1-9.028,7.3,71.189,71.189,0,0,1-9.917,4.433c-1.835.663-3.64,1.375-5.426,2.113a17.487,17.487,0,0,0-3.721,2.075,11.371,11.371,0,0,0-1.457,1.288,2.009,2.009,0,0,0-.611,1.435c0,.414.233.672.728.748a5.863,5.863,0,0,0,1.2.071c.9-.051,1.8-.113,2.682-.226,1.535-.2,3.057-.431,4.584-.652a34.188,34.188,0,0,1,6.443-.408,16.681,16.681,0,0,1,3.964.561,16.5,16.5,0,0,1,1.747.61,5.1,5.1,0,0,1,2.861,2.834,5.483,5.483,0,0,1,.37,2.656,8.077,8.077,0,0,1-2.559,5.163,15.609,15.609,0,0,1-3.352,2.458,33.683,33.683,0,0,1-6.771,2.781c-1.572.472-3.17.9-4.751,1.354-2.66.766-5.328,1.515-7.969,2.314a28.928,28.928,0,0,0-5.748,2.386c-.557.312-1.1.648-1.617,1a6.3,6.3,0,0,0-.859.733c-.338.335-.754.7-.409,1.232s.992.523,1.544.549a14.48,14.48,0,0,0,1.9-.032c1.206-.1,2.4-.241,3.595-.378,2-.231,4-.5,6.008-.7a33.869,33.869,0,0,1,5.822-.014,13.258,13.258,0,0,1,3.589.714,12.747,12.747,0,0,1,2.008.94,5.047,5.047,0,0,1,2.29,2.7,5.824,5.824,0,0,1-.642,5.526,10.261,10.261,0,0,1-3.5,3.114,32.177,32.177,0,0,1-8.128,3.241c-4.013,1.024-8.024,2.055-12.01,3.133-1.738.47-3.428,1.033-5.106,1.608a15.214,15.214,0,0,0-3.493,1.689,3.049,3.049,0,0,0-1.094,1.052.66.66,0,0,0,.346,1,7.026,7.026,0,0,0,1.7.706c1.035.241,2.083.382,3.127.544,1.926.3,3.856.55,5.781.879a16.572,16.572,0,0,1,4.453,1.431,7.82,7.82,0,0,1,2,1.387,4.611,4.611,0,0,1,1.561,3.1,5.057,5.057,0,0,1-1.125,3.537,17.985,17.985,0,0,1-3.544,3.367,12.127,12.127,0,0,1-4.138,1.863,31.547,31.547,0,0,1-6.492,1c-2.318.11-4.636.229-6.974.239-4.291.019-8.5.329-12.683.756a26.794,26.794,0,0,0-11.723,3.869c-1.578.992-3.2,1.934-4.806,2.9l-.088.057a2.086,2.086,0,0,1-2.2.081c-1.645-.771-3.31-1.5-4.967-2.249Z" transform="translate(-1013.613 278.248) rotate(-17)"/>
    <path id="Path_76" data-name="Path 76" class="cls-3" d="M1808.332,570.837c1.053-.487,2.12-.948,3.157-1.467,1.383-.692,2.755-1.407,4.1-2.159a8.753,8.753,0,0,0,1.463-1.089c.343-.3.318-.607-.04-.821a2.547,2.547,0,0,1-1.132-2.19,6.863,6.863,0,0,1,.551-3.028,21.52,21.52,0,0,1,4.308-7.025c.956-1.041,2-2.028,3-3.038,1.3-1.3,2.63-2.578,3.878-3.912a21.184,21.184,0,0,0,3.776-5.438,14.031,14.031,0,0,0,1.365-7.872,8.79,8.79,0,0,0-.326-1.48,4.379,4.379,0,0,0-.515-1.107c-.891-1.35-2.434-1.565-4.169-.61a10.006,10.006,0,0,0-2.586,2.044q-1.2,1.32-2.3,2.7A49.079,49.079,0,0,1,1819,538.8a17.853,17.853,0,0,1-1.527,1.35,4.054,4.054,0,0,1-1.013.532.571.571,0,0,1-.8-.269,3.554,3.554,0,0,1-.224-1.01,6.641,6.641,0,0,1,.361-2.446c.3-.943.627-1.885,1-2.818,1.211-3.061,2.4-6.123,3.4-9.216a49.809,49.809,0,0,0,2.084-8.928,21.939,21.939,0,0,0-.107-7.336,12.247,12.247,0,0,0-3.732-6.667,7.425,7.425,0,0,0-1.509-1.087,4.126,4.126,0,0,0-4.9.891,5.316,5.316,0,0,0-1.284,1.755,18.615,18.615,0,0,0-.946,2.515c-.389,1.469-.685,2.944-1,4.418-.372,1.769-.663,3.541-1.091,5.307-.325,1.339-.793,2.673-1.234,4a9.755,9.755,0,0,1-.686,1.529,5.392,5.392,0,0,1-.749,1.064,1.944,1.944,0,0,1-2.324.548,2.663,2.663,0,0,1-1.23-1.189,9.422,9.422,0,0,1-1.033-3.026,17.148,17.148,0,0,1-.177-4.91c.171-1.57.407-3.142.627-4.714.329-2.358.744-4.72.988-7.072a42.68,42.68,0,0,0-.785-14,19.652,19.652,0,0,0-2.647-6.622,13.888,13.888,0,0,0-3.5-3.771,7.17,7.17,0,0,0-2.25-1.127,3.9,3.9,0,0,0-4.359,1.554,6.057,6.057,0,0,0-1.047,2.172c-.262,1.046-.479,2.095-.68,3.143-.17.885-.269,1.77-.434,2.653a12.665,12.665,0,0,1-1.239,3.791,8.641,8.641,0,0,1-1.038,1.519,2.849,2.849,0,0,1-2.656.967,4.168,4.168,0,0,1-1.559-.542,6.709,6.709,0,0,1-2.28-2.183,11.63,11.63,0,0,1-1.651-3.887c-.548-2.37-1.016-4.763-1.522-7.145a61.625,61.625,0,0,0-2.139-7.742c-.514-1.452-1.03-2.9-1.63-4.319a35.461,35.461,0,0,0-8.97-13.008,19.381,19.381,0,0,0-4.113-2.867,12.675,12.675,0,0,0-2.687-1.036,8.535,8.535,0,0,0-2.365-.27,6.417,6.417,0,0,0-5.384,3.073,7.34,7.34,0,0,0-.981,2.8,11.086,11.086,0,0,0,.287,4.588,50.746,50.746,0,0,0,2.079,5.456c.412,1.018.893,2.007,1.312,3.024a14.657,14.657,0,0,1,1.1,4.593,8.444,8.444,0,0,1-.027,1.65,6.7,6.7,0,0,1-.393,1.564,5.081,5.081,0,0,1-3.66,3.039,7.154,7.154,0,0,1-3.107.188,17,17,0,0,1-2.473-.579c-1.187-.389-2.33-.855-3.483-1.3a32.833,32.833,0,0,0-4.935-1.638,29.373,29.373,0,0,0-2.977-.457,5.991,5.991,0,0,0-2.118.176,2.679,2.679,0,0,0-2.019,1.752,3.715,3.715,0,0,0,.04,2.577,12.446,12.446,0,0,0,1.922,3.341,26.86,26.86,0,0,0,8.421,6.971,65.66,65.66,0,0,0,9.25,4.23c1.712.633,3.4,1.313,5.061,2.017a16.214,16.214,0,0,1,3.471,1.981,10.688,10.688,0,0,1,1.359,1.229,1.939,1.939,0,0,1,.57,1.37c0,.4-.217.641-.679.714a5.346,5.346,0,0,1-1.115.068c-.84-.048-1.68-.108-2.5-.216-1.432-.187-2.851-.411-4.275-.622a31.177,31.177,0,0,0-6.01-.389,13.755,13.755,0,0,0-5.327,1.118,4.816,4.816,0,0,0-2.668,2.7,5.341,5.341,0,0,0-.345,2.535,7.776,7.776,0,0,0,2.387,4.928,14.579,14.579,0,0,0,3.126,2.346,31.019,31.019,0,0,0,6.316,2.655c1.467.451,2.956.858,4.432,1.292,2.481.731,4.97,1.446,7.433,2.209a26.656,26.656,0,0,1,5.362,2.278c.52.3,1.023.618,1.508.955a5.9,5.9,0,0,1,.8.7c.315.32.7.673.382,1.176s-.925.5-1.44.524a13.2,13.2,0,0,1-1.768-.03c-1.125-.1-2.239-.23-3.353-.361-1.869-.221-3.726-.479-5.6-.669a30.883,30.883,0,0,0-5.43-.013,12.12,12.12,0,0,0-3.347.681,11.76,11.76,0,0,0-1.873.9,4.79,4.79,0,0,0-2.136,2.578,5.667,5.667,0,0,0,.6,5.274,9.646,9.646,0,0,0,3.268,2.972,29.624,29.624,0,0,0,7.581,3.094c3.743.977,7.484,1.961,11.2,2.99,1.621.448,3.2.985,4.763,1.535a14.055,14.055,0,0,1,3.258,1.612,2.874,2.874,0,0,1,1.021,1,.635.635,0,0,1-.322.953,6.474,6.474,0,0,1-1.583.674c-.965.23-1.943.365-2.917.519-1.8.284-3.6.525-5.392.839a15.211,15.211,0,0,0-4.153,1.366,7.293,7.293,0,0,0-1.863,1.324,4.438,4.438,0,0,0-1.456,2.959,4.9,4.9,0,0,0,1.05,3.376,16.951,16.951,0,0,0,3.306,3.214,11.19,11.19,0,0,0,3.86,1.778,28.81,28.81,0,0,0,6.055.953c2.161.105,4.324.218,6.5.228,4,.018,7.93.314,11.829.721a24.608,24.608,0,0,1,10.934,3.692c1.472.947,2.987,1.846,4.483,2.767l.082.055a1.908,1.908,0,0,0,2.056.078c1.535-.736,3.087-1.433,4.633-2.147Z" transform="translate(-1358.357 262.137) rotate(-17)"/>
    <g id="Group_158" data-name="Group 158" transform="translate(91.972 -1588.793) rotate(16)">
      <g id="Group_26-4" data-name="Group 26" transform="translate(824 1567.225)">
        <g id="Group_25-4" data-name="Group 25" transform="translate(0)">
          <path id="Path_66-4" data-name="Path 66" class="cls-1" d="M3263.961,371.332a142.548,142.548,0,0,0,11.65-25.086,73.56,73.56,0,0,1-10.56-4.492c2.768.567,8.329-1.173,12.872-2.9a112.639,112.639,0,0,0,3.9-22.246,76.6,76.6,0,0,1-10.381-4.063c1.722.318,6.562-1.16,10.644-2.584.1-10.092-1.086-20.169-2.275-30.194l-.027.02a290.213,290.213,0,0,0-23.306,18.421c1.807,4.077,4.054,8.874,5.386,10.709a39.861,39.861,0,0,1-10.149-6.174,106.145,106.145,0,0,0-7.305,8.078q-2.119,2.61-4.062,5.369c3.522,3.751,8.119,8.251,11.45,10.074,0,0-7.994-2.226-14.9-4.917a183,183,0,0,0-9.894,18.06q-2.325,4.791-4.457,9.695c4.01,4.888,8.391,9.879,10.873,11.6a82.784,82.784,0,0,1-13.667-4.8,144.075,144.075,0,0,0-6.514,21.142c-.636,2.885-1.17,5.814-1.589,8.769a40.2,40.2,0,0,0,9.041,1.969,76.351,76.351,0,0,1-9.656,3.327,86.811,86.811,0,0,0,.048,16.911c.5,4.729,2.291,7.095,4.731,7.949,4.354,1.524,10.779-1.766,15.639-5.03a41.056,41.056,0,0,0,5.771-4.805c-3.011-5.539-2.818-13.135-2.818-13.135l8.15,7.479a184.072,184.072,0,0,0,17.435-22.693c-4.586-3.373-10.254-10.112-10.254-10.112C3252.37,369.335,3259.131,370.6,3263.961,371.332Z" transform="translate(-3110.575 -274.25)"/>
          <path id="Path_67-4" data-name="Path 67" class="cls-2" d="M3148.829,370.6c-1.306-2.748-2.215-5.9-1.557-8.895s3.31-5.652,6.183-5.274c1.832.24,3.339,1.576,4.969,2.5s3.844,1.358,5.169-.008c1.5-1.545.83-4.253-.273-6.138-4.574-7.82-14.7-11.906-16.285-20.959a6.471,6.471,0,0,1,.832-4.989c1.607-2.11,4.649-1.977,7.137-1.367s5.2,1.482,7.488.275c2.6-1.373,3.5-5.081,2.649-8.033s-3.033-5.247-5.321-7.147-4.789-3.564-6.7-5.885a8.765,8.765,0,0,1-2.19-4.864,4.573,4.573,0,0,1,2.328-4.5c2.259-.988,5.682.437,6.78-1.883.812-1.716-.707-3.561-1.874-5.027-2.468-3.1-3.8-7.473-2.6-11.329a9.123,9.123,0,0,1,7.841-6.4,8.96,8.96,0,0,1,8.479,5.4c1.61,3.688.85,8.17,2.469,11.854,1.515.578,2.789-1.208,4.045-2.277,3.106-2.642,8.144-.754,10.162,2.891s1.685,8.254.6,12.324-2.85,7.937-3.561,12.1c-.219,1.279-.014,3.053,1.2,3.229a2.2,2.2,0,0,0,1.6-.668c2.038-1.659,3.72-3.8,5.876-5.28s5.083-2.194,7.253-.738a7.31,7.31,0,0,1,2.369,3.054c2.66,5.683,1.538,12.564-.662,18.464s-5.412,11.388-6.978,17.514c-.279,1.091-.408,2.488.465,3.133a2.064,2.064,0,0,0,1.646.233c3.136-.629,5.215-4.156,8.352-4.779a6.366,6.366,0,0,1,5.958,2.54,13.652,13.652,0,0,1,2.549,6.519c1.1,7.063-.782,14.259-3.181,20.947a87.093,87.093,0,0,1-11.066,21.805h0c-1.917,2.646-9.313,13.82-9.313,13.82s-8.642-10.441-10.3-12c-7.088-6.663-15.6-11.322-22.826-17.795A39.758,39.758,0,0,1,3148.829,370.6Z" transform="translate(-3088.284 -270.657)"/>
          <path id="Path_68-4" data-name="Path 68" class="cls-1" d="M3125.742,415.658a105,105,0,0,0-19.008-9.413,61.551,61.551,0,0,1-3.4,8.532c.429-2.236-.889-6.73-2.2-10.4a80.543,80.543,0,0,0-16.855-3.152,64.358,64.358,0,0,1-3.078,8.388c.241-1.392-.879-5.3-1.958-8.6-7.646-.082-15.282.877-22.878,1.838l.015.022a233.018,233.018,0,0,0,13.957,18.83,59.928,59.928,0,0,0,8.115-4.351,32.782,32.782,0,0,1-4.678,8.2,82.419,82.419,0,0,0,6.12,5.9q1.978,1.712,4.068,3.282c2.843-2.846,6.251-6.56,7.633-9.251,0,0-1.686,6.459-3.725,12.04a136.141,136.141,0,0,0,13.684,7.994q3.63,1.879,7.345,3.6c3.7-3.24,7.485-6.78,8.786-8.785a69.989,69.989,0,0,1-3.638,11.042,104.28,104.28,0,0,0,16.019,5.262c2.186.514,4.406.946,6.644,1.284a34.294,34.294,0,0,0,1.492-7.3,64.53,64.53,0,0,1,2.521,7.8,61.715,61.715,0,0,0,12.813-.039c3.583-.4,5.376-1.851,6.023-3.822,1.154-3.518-1.338-8.709-3.811-12.636a32.858,32.858,0,0,0-3.641-4.662c-4.2,2.433-9.953,2.277-9.953,2.277l5.667-6.585a140.921,140.921,0,0,0-17.194-14.087,60.711,60.711,0,0,1-7.662,8.285C3124.229,425.022,3125.189,419.56,3125.742,415.658Z" transform="translate(-3056.364 -313.574)"/>
        </g>
      </g>
    </g>
    <g id="Group_153" data-name="Group 153" transform="translate(514.139 -1599.689) rotate(20)">
      <g id="Group_26-5" data-name="Group 26" transform="translate(824 1567.225)">
        <g id="Group_25-5" data-name="Group 25" transform="translate(0)">
          <path id="Path_66-5" data-name="Path 66" class="cls-1" d="M3263.961,365.635a129.988,129.988,0,0,0,11.65-23.525,76.183,76.183,0,0,1-10.56-4.213c2.768.532,8.329-1.1,12.872-2.719a99.7,99.7,0,0,0,3.9-20.862,79.638,79.638,0,0,1-10.381-3.81c1.722.3,6.562-1.088,10.644-2.424.1-9.464-1.086-18.914-2.275-28.315l-.027.019a288.2,288.2,0,0,0-23.306,17.275c1.807,3.823,4.054,8.322,5.386,10.043a40.546,40.546,0,0,1-10.149-5.79,102.124,102.124,0,0,0-7.305,7.575q-2.119,2.448-4.062,5.035c3.522,3.518,8.119,7.737,11.45,9.448,0,0-7.994-2.087-14.9-4.611A168.654,168.654,0,0,0,3227,335.7q-2.325,4.493-4.457,9.091c4.01,4.584,8.391,9.264,10.873,10.875a86.613,86.613,0,0,1-13.667-4.5,128.993,128.993,0,0,0-6.514,19.826c-.636,2.705-1.17,5.453-1.589,8.223a42.491,42.491,0,0,0,9.041,1.847,79.774,79.774,0,0,1-9.656,3.12,76.37,76.37,0,0,0,.048,15.859c.5,4.435,2.291,6.653,4.731,7.455,4.354,1.429,10.779-1.656,15.639-4.717a40.577,40.577,0,0,0,5.771-4.506c-3.011-5.195-2.818-12.318-2.818-12.318l8.15,7.014a174.4,174.4,0,0,0,17.435-21.281c-4.586-3.164-10.254-9.483-10.254-9.483C3252.37,363.763,3259.131,364.951,3263.961,365.635Z" transform="translate(-3117.217 -274.25)"/>
          <path id="Path_67-5" data-name="Path 67" class="cls-2" d="M3148.829,364.62c-1.306-2.583-2.215-5.543-1.557-8.363s3.31-5.314,6.183-4.959c1.832.226,3.339,1.482,4.969,2.348s3.844,1.277,5.169-.007c1.5-1.453.83-4-.273-5.771-4.574-7.352-14.7-11.194-16.285-19.706a5.78,5.78,0,0,1,.832-4.691c1.607-1.984,4.649-1.859,7.137-1.286s5.2,1.393,7.488.259c2.6-1.29,3.5-4.777,2.649-7.553s-3.033-4.933-5.321-6.719-4.789-3.351-6.7-5.533a8.022,8.022,0,0,1-2.19-4.573,4.239,4.239,0,0,1,2.328-4.232c2.259-.929,5.682.411,6.78-1.771.812-1.614-.707-3.348-1.874-4.727-2.468-2.915-3.8-7.026-2.6-10.652a8.791,8.791,0,0,1,16.32-.94c1.61,3.467.85,7.682,2.469,11.146,1.515.544,2.789-1.136,4.045-2.141,3.106-2.484,8.144-.709,10.162,2.718s1.685,7.76.6,11.587-2.85,7.462-3.561,11.375c-.219,1.2-.014,2.87,1.2,3.036a2.271,2.271,0,0,0,1.6-.628c2.038-1.559,3.72-3.571,5.876-4.964s5.083-2.063,7.253-.693a6.95,6.95,0,0,1,2.369,2.871c2.66,5.343,1.538,11.812-.662,17.36s-5.412,10.707-6.978,16.467c-.279,1.026-.408,2.339.465,2.946a2.177,2.177,0,0,0,1.646.219c3.136-.591,5.215-3.907,8.352-4.493a6.554,6.554,0,0,1,5.958,2.388,12.405,12.405,0,0,1,2.549,6.129c1.1,6.641-.782,13.407-3.181,19.694a80.145,80.145,0,0,1-11.066,20.5h0c-1.917,2.488-9.313,12.993-9.313,12.993s-8.642-9.817-10.3-11.282c-7.088-6.265-15.6-10.645-22.826-16.731A37.827,37.827,0,0,1,3148.829,364.62Z" transform="translate(-3092.069 -270.657)"/>
          <path id="Path_68-5" data-name="Path 68" class="cls-1" d="M3125.742,415.658a105,105,0,0,0-19.008-9.413,61.551,61.551,0,0,1-3.4,8.532c.429-2.236-.889-6.73-2.2-10.4a80.543,80.543,0,0,0-16.855-3.152,64.358,64.358,0,0,1-3.078,8.388c.241-1.392-.879-5.3-1.958-8.6-7.646-.082-15.282.877-22.878,1.838l.015.022a233.018,233.018,0,0,0,13.957,18.83,59.928,59.928,0,0,0,8.115-4.351,32.782,32.782,0,0,1-4.678,8.2,82.419,82.419,0,0,0,6.12,5.9q1.978,1.712,4.068,3.282c2.843-2.846,6.251-6.56,7.633-9.251,0,0-1.686,6.459-3.725,12.04a136.141,136.141,0,0,0,13.684,7.994q3.63,1.879,7.345,3.6c3.7-3.24,7.485-6.78,8.786-8.785a69.989,69.989,0,0,1-3.638,11.042,104.28,104.28,0,0,0,16.019,5.262c2.186.514,4.406.946,6.644,1.284a34.294,34.294,0,0,0,1.492-7.3,64.53,64.53,0,0,1,2.521,7.8,61.715,61.715,0,0,0,12.813-.039c3.583-.4,5.376-1.851,6.023-3.822,1.154-3.518-1.338-8.709-3.811-12.636a32.858,32.858,0,0,0-3.641-4.662c-4.2,2.433-9.953,2.277-9.953,2.277l5.667-6.585a140.921,140.921,0,0,0-17.194-14.087,60.711,60.711,0,0,1-7.662,8.285C3124.229,425.022,3125.189,419.56,3125.742,415.658Z" transform="translate(-3056.364 -322.071)"/>
        </g>
      </g>
    </g>
    <g id="Group_154" data-name="Group 154" transform="translate(251.972 -1578.793) rotate(16)">
      <g id="Group_26-6" data-name="Group 26" transform="translate(824 1567.225)">
        <g id="Group_25-6" data-name="Group 25" transform="translate(0)">
          <path id="Path_66-6" data-name="Path 66" class="cls-1" d="M3263.961,371.332a142.548,142.548,0,0,0,11.65-25.086,73.56,73.56,0,0,1-10.56-4.492c2.768.567,8.329-1.173,12.872-2.9a112.639,112.639,0,0,0,3.9-22.246,76.6,76.6,0,0,1-10.381-4.063c1.722.318,6.562-1.16,10.644-2.584.1-10.092-1.086-20.169-2.275-30.194l-.027.02a290.213,290.213,0,0,0-23.306,18.421c1.807,4.077,4.054,8.874,5.386,10.709a39.861,39.861,0,0,1-10.149-6.174,106.145,106.145,0,0,0-7.305,8.078q-2.119,2.61-4.062,5.369c3.522,3.751,8.119,8.251,11.45,10.074,0,0-7.994-2.226-14.9-4.917a183,183,0,0,0-9.894,18.06q-2.325,4.791-4.457,9.695c4.01,4.888,8.391,9.879,10.873,11.6a82.784,82.784,0,0,1-13.667-4.8,144.075,144.075,0,0,0-6.514,21.142c-.636,2.885-1.17,5.814-1.589,8.769a40.2,40.2,0,0,0,9.041,1.969,76.351,76.351,0,0,1-9.656,3.327,86.811,86.811,0,0,0,.048,16.911c.5,4.729,2.291,7.095,4.731,7.949,4.354,1.524,10.779-1.766,15.639-5.03a41.056,41.056,0,0,0,5.771-4.805c-3.011-5.539-2.818-13.135-2.818-13.135l8.15,7.479a184.072,184.072,0,0,0,17.435-22.693c-4.586-3.373-10.254-10.112-10.254-10.112C3252.37,369.335,3259.131,370.6,3263.961,371.332Z" transform="translate(-3110.575 -274.25)"/>
          <path id="Path_67-6" data-name="Path 67" class="cls-2" d="M3148.829,370.6c-1.306-2.748-2.215-5.9-1.557-8.895s3.31-5.652,6.183-5.274c1.832.24,3.339,1.576,4.969,2.5s3.844,1.358,5.169-.008c1.5-1.545.83-4.253-.273-6.138-4.574-7.82-14.7-11.906-16.285-20.959a6.471,6.471,0,0,1,.832-4.989c1.607-2.11,4.649-1.977,7.137-1.367s5.2,1.482,7.488.275c2.6-1.373,3.5-5.081,2.649-8.033s-3.033-5.247-5.321-7.147-4.789-3.564-6.7-5.885a8.765,8.765,0,0,1-2.19-4.864,4.573,4.573,0,0,1,2.328-4.5c2.259-.988,5.682.437,6.78-1.883.812-1.716-.707-3.561-1.874-5.027-2.468-3.1-3.8-7.473-2.6-11.329a9.123,9.123,0,0,1,7.841-6.4,8.96,8.96,0,0,1,8.479,5.4c1.61,3.688.85,8.17,2.469,11.854,1.515.578,2.789-1.208,4.045-2.277,3.106-2.642,8.144-.754,10.162,2.891s1.685,8.254.6,12.324-2.85,7.937-3.561,12.1c-.219,1.279-.014,3.053,1.2,3.229a2.2,2.2,0,0,0,1.6-.668c2.038-1.659,3.72-3.8,5.876-5.28s5.083-2.194,7.253-.738a7.31,7.31,0,0,1,2.369,3.054c2.66,5.683,1.538,12.564-.662,18.464s-5.412,11.388-6.978,17.514c-.279,1.091-.408,2.488.465,3.133a2.064,2.064,0,0,0,1.646.233c3.136-.629,5.215-4.156,8.352-4.779a6.366,6.366,0,0,1,5.958,2.54,13.652,13.652,0,0,1,2.549,6.519c1.1,7.063-.782,14.259-3.181,20.947a87.093,87.093,0,0,1-11.066,21.805h0c-1.917,2.646-9.313,13.82-9.313,13.82s-8.642-10.441-10.3-12c-7.088-6.663-15.6-11.322-22.826-17.795A39.758,39.758,0,0,1,3148.829,370.6Z" transform="translate(-3088.284 -270.657)"/>
          <path id="Path_68-6" data-name="Path 68" class="cls-1" d="M3125.742,415.658a105,105,0,0,0-19.008-9.413,61.551,61.551,0,0,1-3.4,8.532c.429-2.236-.889-6.73-2.2-10.4a80.543,80.543,0,0,0-16.855-3.152,64.358,64.358,0,0,1-3.078,8.388c.241-1.392-.879-5.3-1.958-8.6-7.646-.082-15.282.877-22.878,1.838l.015.022a233.018,233.018,0,0,0,13.957,18.83,59.928,59.928,0,0,0,8.115-4.351,32.782,32.782,0,0,1-4.678,8.2,82.419,82.419,0,0,0,6.12,5.9q1.978,1.712,4.068,3.282c2.843-2.846,6.251-6.56,7.633-9.251,0,0-1.686,6.459-3.725,12.04a136.141,136.141,0,0,0,13.684,7.994q3.63,1.879,7.345,3.6c3.7-3.24,7.485-6.78,8.786-8.785a69.989,69.989,0,0,1-3.638,11.042,104.28,104.28,0,0,0,16.019,5.262c2.186.514,4.406.946,6.644,1.284a34.294,34.294,0,0,0,1.492-7.3,64.53,64.53,0,0,1,2.521,7.8,61.715,61.715,0,0,0,12.813-.039c3.583-.4,5.376-1.851,6.023-3.822,1.154-3.518-1.338-8.709-3.811-12.636a32.858,32.858,0,0,0-3.641-4.662c-4.2,2.433-9.953,2.277-9.953,2.277l5.667-6.585a140.921,140.921,0,0,0-17.194-14.087,60.711,60.711,0,0,1-7.662,8.285C3124.229,425.022,3125.189,419.56,3125.742,415.658Z" transform="translate(-3056.364 -313.574)"/>
        </g>
      </g>
    </g>
  </g>
</svg>
